<?xml version="1.0" encoding="utf-8"?>
<!-- Generator: Adobe Illustrator 22.0.0, SVG Export Plug-In . SVG Version: 6.00 Build 0)  -->
<svg version="1.1" id="Layer_1" xmlns="http://www.w3.org/2000/svg" xmlns:xlink="http://www.w3.org/1999/xlink" x="0px" y="0px"
	 viewBox="0 0 166 203" style="enable-background:new 0 0 166 203;" xml:space="preserve">
<style type="text/css">
	.st0{fill:#FF4545;}
	.st1{fill:#9630D8;}
</style>
<title>Asset 1</title>
<g id="b6e05400-072d-4f2d-81ae-4e6e6d1f329c">
	<g id="b30d16b1-bc3f-488b-8495-7abdec5c98f7">
		<path class="st0" d="M60.3,203H35l-4.5-4.5v-75.8l4.5-4.5h25.3l4.5,4.5v75.8L60.3,203z M39.5,194h16.3v-66.8H39.5V194z"/>
		<path class="st0" d="M110.8,203H85.5l-4.5-4.5V91.2l4.5-4.5h25.3l4.5,4.5v107.3L110.8,203z M90,194h16.3V95.7H90V194z"/>
		<path class="st0" d="M161.3,203h-25.3l-4.5-4.5V59.6l4.5-4.5h25.3l4.5,4.5v138.9L161.3,203z M140.6,194h16.3V64.1h-16.3V194z"/>
		<path class="st1" d="M52.2,99l-16.5-8.2l-2.4-3.3l-8-47.8L1.9,18.9l-1.5-3.4v-11L4.9,0h82.3l4.5,4.5v11l-1.5,3.4L66.7,39.7l-8,56
			L52.2,99z M41.8,83.8l8.8,4.4L58,36.8l1.5-2.8l23.2-20.5V9H9.4v4.5L32.5,34l1.5,2.7L41.8,83.8z"/>
		<rect y="194" class="st1" width="166" height="9"/>
	</g>
</g>
</svg>
