<?xml version="1.0" encoding="utf-8"?>
<!-- Generator: Adobe Illustrator 22.0.0, SVG Export Plug-In . SVG Version: 6.00 Build 0)  -->
<svg version="1.1" id="Layer_1" xmlns="http://www.w3.org/2000/svg" xmlns:xlink="http://www.w3.org/1999/xlink" x="0px" y="0px"
	 viewBox="0 0 203 203" style="enable-background:new 0 0 203 203;" xml:space="preserve">
<style type="text/css">
	.st0{fill:#FF4545;}
	.st1{fill:#9630D8;}
</style>
<title>Asset 1</title>
<path class="st0" d="M101.2,177.1c-41.8,0-75.7-33.9-75.7-75.7s33.9-75.7,75.7-75.7s75.7,33.9,75.7,75.7
	C176.9,143.2,143,177.1,101.2,177.1z M101.2,34.7c-36.9,0-66.7,29.9-66.7,66.7s29.9,66.7,66.7,66.7s66.7-29.9,66.7-66.7l0,0
	C167.9,64.6,138,34.7,101.2,34.7z"/>
<path class="st0" d="M101.2,158.3c-31.4,0-56.9-25.4-56.9-56.9c0-31.4,25.4-56.9,56.9-56.9s56.9,25.4,56.9,56.9
	c0,15.2-6.1,29.8-16.9,40.4C130.6,152.3,116.2,158.3,101.2,158.3z M101.2,53.5c-26.4,0-47.9,21.4-47.8,47.9
	c0,26.4,21.4,47.9,47.9,47.8c26.4,0,47.8-21.4,47.8-47.8C149.1,75,127.6,53.6,101.2,53.5z"/>
<rect x="97" class="st1" width="9" height="16"/>
<rect x="97" y="187" class="st1" width="9" height="16"/>
<rect x="187" y="97" class="st1" width="16" height="9"/>
<rect y="97" class="st1" width="16" height="9"/>
<rect x="159.6" y="30.9" transform="matrix(0.7071 -0.7071 0.7071 0.7071 24.0636 128.8874)" class="st1" width="16" height="9"/>
<rect x="27.4" y="163.1" transform="matrix(0.7071 -0.7071 0.7071 0.7071 -108.1533 74.1164)" class="st1" width="16" height="9"/>
<rect x="163.1" y="159.6" transform="matrix(0.7071 -0.7071 0.7071 0.7071 -69.4203 167.6103)" class="st1" width="9" height="16"/>
<rect x="30.9" y="27.4" transform="matrix(0.7071 -0.7071 0.7071 0.7071 -14.6593 35.3893)" class="st1" width="9" height="16"/>
<path class="st0" d="M113.9,120c-2.4,3.3-7,4.1-10.3,1.7l0,0c-2.5-1.8-5.4-2.8-8.4-3c1.7-4.4,2.4-9.1,2.2-13.9h13.8v-9H95.4
	c-0.8-2.1-1.7-4.1-2.9-6v-0.1c-2.5-4.5-1-10.1,3.5-12.7c4.5-2.5,10.1-1,12.7,3.5c0.8,1.4,1.2,3,1.2,4.6h9c0-10.1-8.2-18.3-18.3-18.3
	S82.3,75,82.3,85.1c0,3.2,0.8,6.3,2.4,9.1l0.1-0.1l-0.1,0.2c0.3,0.5,0.6,0.9,0.8,1.4h-4.4v9h7.2c0.8,8.8-4,16-6.2,18.9
	c-0.5,0.6-1,1.1-1.5,1.8l6.9,5.7c0.4-0.5,0.9-1,1.4-1.6c2.6-2.4,6.5-2.6,9.3-0.6l0,0c7.4,5.3,17.6,3.6,22.9-3.7c0,0,0,0,0,0
	L113.9,120z"/>
</svg>
